module storagePeer

go 1.14

require (
	github.com/golang/protobuf v1.5.2
	github.com/klauspost/cpuid/v2 v2.0.9 // indirect
	github.com/klauspost/reedsolomon v1.9.13
	golang.org/x/net v0.0.0-20210917221730-978cfadd31cf
	golang.org/x/sys v0.0.0-20210921065528-437939a70204 // indirect
	golang.org/x/text v0.3.7 // indirect
	google.golang.org/genproto v0.0.0-20210921142501-181ce0d877f6 // indirect
	google.golang.org/grpc v1.40.0
	google.golang.org/protobuf v1.27.1
)
